﻿[
	{
		"_id": "co-0",
		"_parentId": "course",
		"_type": "page",
		"_classes": "",
		"height":"570",
		"title": "Introdução",
		"displayTitle": "Introdução",
		"pageBody": "Familiarize-se com um dos objetivos de anúncio mais poderosos do Facebook: Conversões.",
		"body": "Familiarize-se com um dos objetivos de anúncio mais poderosos do Facebook: Conversões.",
		"_graphic": {
			"src": "course/en/images/contentobjects/co1.png",
			"alt": "Visão geral"
		},
		"linkText": "Visualizar",
		"durationLabel": "Duração:",
		"duration": "7 min",
		"_pageLevelProgress": {
			"_isEnabled": true
		}
	},
    
    {
		"_id": "co-100",
		"_parentId": "course",
		"_type": "page",
		"_classes": "",
		"height":"570",
		"title": "Receita para anúncios de conversão",
		"displayTitle": "Receita para anúncios de conversão",
		"pageBody": "Conheça os ingredientes para criar um anúncio de conversão e saiba como eles são combinados. ",
		"body": "Conheça os ingredientes para criar um anúncio de conversão e saiba como eles são combinados. ",
		"_graphic": {
			"src": "course/en/images/contentobjects/co-2.png",
			"alt": "Visão geral"
		},
		"linkText": "Visualizar",
		"durationLabel": "Duração:",
		"duration": "6 min",
		"_pageLevelProgress": {
			"_isEnabled": true
		}
	},
        {
		"_id": "co-150",
		"_parentId": "course",
		"_type": "page",
		"_classes": "",
		"height":"570",
		"title": "Noções básicas",
		"displayTitle": "Noções básicas",
		"pageBody": "Conheça os fundamentos da mensuração das conversões e da implementação do pixel e dos eventos do aplicativo. ",
		"body": "Conheça os fundamentos da mensuração das conversões e da implementação do pixel e dos eventos do aplicativo.   ",
		"_graphic": {
			"src": "course/en/images/contentobjects/before.png",
			"alt": "Visão geral"
		},
		"linkText": "Visualizar",
		"durationLabel": "Duração:",
		"duration": "8 min",
		"_pageLevelProgress": {
			"_isEnabled": true
		}
	},
    {
		"_id": "co-200",
		"_parentId": "course",
		"_type": "page",
		"_classes": "",
		"height":"570",
		"title": "Seu arsenal de conversões ",
		"displayTitle": "Seu arsenal de conversões",
		"pageBody": "Conheça os elementos extras que você pode utilizar para ampliar seu anúncio de conversão.",
		"body": "Conheça os elementos extras que você pode utilizar para ampliar seu anúncio de conversão.",
		"_graphic": {
			"src": "course/en/images/contentobjects/arsenal.jpg",
			"alt": "Visão geral"
		},
		"linkText": "Visualizar",
		"durationLabel": "Duração:",
		"duration": "8 min",
		"_pageLevelProgress": {
			"_isEnabled": true
		}
	},

    {
		"_id": "co-300",
		"_parentId": "course",
		"_type": "page",
		"_classes": "",
		"height":"570",
		"title": "Conversões no site",
		"displayTitle": "Conversão no site",
		"pageBody": "Saiba como criar anúncios que levem as pessoas para o seu site e concluam sua meta de conversão.",
		"body": "Saiba como criar anúncios que levem as pessoas para o seu site e concluam sua meta de conversão.",
		"_graphic": {
			"src": "course/en/images/contentobjects/co4.png",
			"alt": "Visão geral"
		},
		"linkText": "Visualizar",
		"durationLabel": "Duração:",
		"duration": "9 minutos",
		"_pageLevelProgress": {
			"_isEnabled": true
		}
	},
      {
		"_id": "co-340a",
		"_parentId": "co-340a",
		"_type": "page",
		"_classes": "",
		"height":"570",
		"title": "Opções avançadas de anúncios de conversão no site",
		"displayTitle": "Opções avançadas de anúncios de conversão no site",
		"pageBody": "Saiba como aplicar funções avançadas para aproveitar ao máximo os anúncios de conversão no site.",
		"body": "Saiba como aplicar funções avançadas para aproveitar ao máximo os anúncios de conversão no site.",
		"_graphic": {
			"src": "course/en/images/contentobjects/co7.png",
			"alt": "Visão geral"
		},
		"linkText": "Visualizar",
		"durationLabel": "Duração:",
		"duration": "7 min",
		"_pageLevelProgress": {
			"_isEnabled": true
		}
	},
    {
		"_id": "co-400",
		"_parentId": "course",
		"_type": "page",
		"_classes": "",
		"height":"570",
		"title": "Conversões no Messenger",
		"displayTitle": "Conversões no Messenger",
		"pageBody": "Saiba como criar anúncios que direcionam as pessoas ao Messenger e criam experiências sob medida no Messenger para as pessoas que clicarem no seu anúncio.",
		"body": "Saiba como criar anúncios que direcionam as pessoas ao Messenger e criam experiências sob medida no Messenger para as pessoas que clicarem no seu anúncio.",
		"_graphic": {
			"src": "course/en/images/contentobjects/co5.png",
			"alt": "Visão geral"
		},
		"linkText": "Visualizar",
		"durationLabel": "Duração:",
		"duration": "8 min",
		"_pageLevelProgress": {
			"_isEnabled": true
		}
	},
    {
		"_id": "co-500",
		"_parentId": "course",
		"_type": "page",
		"_classes": "",
		"height":"570",
		"title": "Conversões no aplicativo",
		"displayTitle": "Conversões no aplicativo",
		"pageBody": "Saiba como usar os recursos especiais para criar anúncios que gerem conversões no seu aplicativo móvel.",
		"body": "Saiba como usar os recursos especiais para criar anúncios que gerem conversões no seu aplicativo móvel.",
		"_graphic": {
			"src": "course/en/images/contentobjects/co6.png",
			"alt": "Visão geral"
		},
		"linkText": "Visualizar",
		"durationLabel": "Duração:",
		"duration": "8 min",
		"_pageLevelProgress": {
			"_isEnabled": true
		}
	},
      
     {
		"_id": "co-700",
		"_parentId": "course",
		"_type": "page",
		"_classes": "",
		"height":"570",
		"title": "Verificação de conhecimento",
		"displayTitle": "Verificação de conhecimento",
		"pageBody": "Está pronto para avaliar seus conhecimentos sobre como trabalhar com o objetivo de anúncio de conversões?",
		"body": "Está pronto para avaliar seus conhecimentos sobre como trabalhar com o objetivo de anúncio de conversões?",
		"_graphic": {
			"src": "course/en/images/contentobjects/co8.png",
			"alt": "Visão geral"
		},
		"linkText": "Visualizar",
		"durationLabel": "Duração:",
		"duration": "4 min",
		"_pageLevelProgress": {
			"_isEnabled": true
		}
	}
]
